<?xml version="1.0" encoding="UTF-8"?>
<svg width="195px" height="65px" viewBox="0 0 195 65" version="1.1" xmlns="http://www.w3.org/2000/svg" xmlns:xlink="http://www.w3.org/1999/xlink">
    <!-- Generator: Sketch 51.3 (57544) - http://www.bohemiancoding.com/sketch -->
    <title>bbang_icon</title>
    <desc>Created with Sketch.</desc>
    <defs></defs>
    <g id="bbang_icon" stroke="none" stroke-width="1" fill="none" fill-rule="evenodd">
        <g fill="#FFFFFF" id="Group">
            <g>
                <path d="M0,30.9602054 L0,0 L11.3419194,0 C17.2964271,0 20.0103864,3.58151476 20.0103864,9.19255456 C20.0103864,11.5006418 19.4837973,13.6097561 17.3369339,15.4801027 C19.6458247,17.6290116 20.0103864,19.7381258 20.0103864,22.6829268 C20.0103864,27.8960205 16.48629,30.9602054 11.3419194,30.9602054 L0,30.9602054 Z M4.0506855,17.4698331 L4.0506855,26.9807445 L11.3419194,26.9807445 C14.258413,26.9807445 15.9597009,25.7073171 15.9597009,22.6829268 C15.9597009,19.3401797 15.0280432,17.4698331 11.3419194,17.4698331 L4.0506855,17.4698331 Z M4.0506855,3.97946085 L4.0506855,13.4903723 L11.3419194,13.4903723 C14.258413,13.4903723 15.9597009,12.2169448 15.9597009,9.19255456 C15.9597009,5.84980745 15.0280432,3.97946085 11.3419194,3.97946085 L4.0506855,3.97946085 Z M41.1954715,3.97946085 L41.1954715,26.9807445 L47.1499792,26.9807445 C48.2031575,26.9807445 49.175322,27.5378691 49.175322,28.970475 C49.175322,30.4030809 48.2031575,30.9602054 47.1499792,30.9602054 L31.1902784,30.9602054 C30.1371001,30.9602054 29.1649356,30.4030809 29.1649356,28.970475 C29.1649356,27.5378691 30.1371001,26.9807445 31.1902784,26.9807445 L37.144786,26.9807445 L37.144786,3.97946085 L31.1902784,3.97946085 C30.1371001,3.97946085 29.1649356,3.42233633 29.1649356,1.98973042 C29.1649356,0.557124519 30.1371001,0 31.1902784,0 L47.1499792,0 C48.2031575,0 49.175322,0.557124519 49.175322,1.98973042 C49.175322,3.42233633 48.2031575,3.97946085 47.1499792,3.97946085 L41.1954715,3.97946085 Z M74.2895721,20.8523748 L70.3604071,20.8523748 C69.3072289,20.8523748 68.3350644,20.2952503 68.3350644,18.8626444 C68.3350644,17.4300385 69.3072289,16.872914 70.3604071,16.872914 L78.3402576,16.872914 L78.3402576,24.7124519 C78.3402576,28.5725289 75.707312,30.9602054 71.8591608,30.9602054 L64.8919817,30.9602054 C63.0286664,30.9602054 61.6514333,30.6418485 60.2336934,29.3684211 C58.6134192,27.9358151 58.3298712,26.4634146 58.3298712,24.4736842 L58.3298712,14.5250321 C58.3298712,11.9781772 58.8969672,10.6649551 60.4362277,8.71501926 L65.2160366,2.70603338 C66.8363108,0.676508344 68.2540507,0 70.8869963,0 L76.3149148,0 C77.3680931,0 78.3402576,0.557124519 78.3402576,1.98973042 C78.3402576,3.42233633 77.3680931,3.97946085 76.3149148,3.97946085 L71.4540922,3.97946085 C69.2262152,3.97946085 69.3882426,3.93966624 68.0515164,5.61103979 L63.6362692,11.1424904 C62.3805567,12.6944801 62.3805567,14.3658537 62.3805567,16.3157895 L62.3805567,24.1155327 C62.3805567,26.3042362 62.866639,26.9807445 65.1755297,26.9807445 L71.6161197,26.9807445 C73.0743664,26.9807445 74.2895721,26.6623877 74.2895721,24.9114249 L74.2895721,20.8523748 Z M87.4948068,30.9602054 L87.4948068,0 L98.8367262,0 C104.791234,0 107.505193,3.58151476 107.505193,9.19255456 C107.505193,11.5006418 106.978604,13.6097561 104.831741,15.4801027 C107.140631,17.6290116 107.505193,19.7381258 107.505193,22.6829268 C107.505193,27.8960205 103.981097,30.9602054 98.8367262,30.9602054 L87.4948068,30.9602054 Z M91.5454923,17.4698331 L91.5454923,26.9807445 L98.8367262,26.9807445 C101.75322,26.9807445 103.454508,25.7073171 103.454508,22.6829268 C103.454508,19.3401797 102.52285,17.4698331 98.8367262,17.4698331 L91.5454923,17.4698331 Z M91.5454923,3.97946085 L91.5454923,13.4903723 L98.8367262,13.4903723 C101.75322,13.4903723 103.454508,12.2169448 103.454508,9.19255456 C103.454508,5.84980745 102.52285,3.97946085 98.8367262,3.97946085 L91.5454923,3.97946085 Z M116.659742,28.970475 L124.599086,2.02952503 C124.923141,0.955070603 125.368716,0 126.664936,0 C128.001662,0 128.487744,0.994865212 128.771292,2.02952503 L136.589115,28.970475 C136.872663,29.9255456 135.778978,30.9602054 134.644786,30.9602054 C133.389074,30.9602054 132.740964,29.9255456 132.457416,28.970475 L130.958662,24.195122 L122.330702,24.195122 L120.791442,28.970475 C120.507894,29.9255456 119.859784,30.9602054 118.604071,30.9602054 C117.46988,30.9602054 116.376194,29.9255456 116.659742,28.970475 Z M129.82447,20.2156611 L126.705442,9.43132221 L126.624429,9.43132221 L123.464894,20.2156611 L129.82447,20.2156611 Z M161.723619,24.1553273 L161.703365,24.1553273 L161.723619,24.1553273 Z M161.723619,24.1553273 L161.784379,24.1553273 L161.824886,2.02952503 C161.824886,0.756097561 162.391982,0.0397946085 163.850229,0.0397946085 C165.308475,0.0397946085 165.875571,0.756097561 165.875571,2.02952503 L165.875571,31 L160.528666,31 L149.956377,7.12323492 L149.956377,7.08344031 L149.875364,7.08344031 L149.875364,28.970475 C149.875364,30.2439024 149.308268,30.9602054 147.850021,30.9602054 C146.391774,30.9602054 145.824678,30.2439024 145.824678,28.970475 L145.824678,0 L151.171583,0 L161.743872,24.1553273 L161.723619,24.1553273 Z M190.949314,20.8523748 L187.02015,20.8523748 C185.966971,20.8523748 184.994807,20.2952503 184.994807,18.8626444 C184.994807,17.4300385 185.966971,16.872914 187.02015,16.872914 L195,16.872914 L195,24.7124519 C195,28.5725289 192.367054,30.9602054 188.518903,30.9602054 L181.551724,30.9602054 C179.688409,30.9602054 178.311176,30.6418485 176.893436,29.3684211 C175.273162,27.9358151 174.989614,26.4634146 174.989614,24.4736842 L174.989614,14.5250321 C174.989614,11.9781772 175.55671,10.6649551 177.09597,8.71501926 L181.875779,2.70603338 C183.496053,0.676508344 184.913793,0 187.546739,0 L192.974657,0 C194.027835,0 195,0.557124519 195,1.98973042 C195,3.42233633 194.027835,3.97946085 192.974657,3.97946085 L188.113835,3.97946085 C185.885958,3.97946085 186.047985,3.93966624 184.711259,5.61103979 L180.296012,11.1424904 C179.040299,12.6944801 179.040299,14.3658537 179.040299,16.3157895 L179.040299,24.1155327 C179.040299,26.3042362 179.526381,26.9807445 181.835272,26.9807445 L188.275862,26.9807445 C189.734109,26.9807445 190.949314,26.6623877 190.949314,24.9114249 L190.949314,20.8523748 Z" id="BIGBANG"></path>
                <path d="M2.86663897,49.4434447 L11.4416286,60.2133676 C11.9401745,60.848329 12.3140839,61.4100257 12.3140839,62.2403599 C12.3140839,64.0719794 10.8932281,65 9.1732447,65 L3.68923972,65 C2.74200249,65 1.91940174,64.8290488 1.17158288,64.218509 C0.498545908,63.6812339 0,62.8020566 0,61.9473008 C0,61.1658098 0.448691317,60.4820051 1.32114666,60.4820051 C2.04403822,60.4820051 2.49272954,61.0681234 2.49272954,61.7275064 C2.49272954,62.4601542 2.89156627,62.5578406 3.58953054,62.5578406 L8.99875364,62.5578406 C9.198172,62.5578406 9.82135438,62.6311054 9.82135438,62.2647815 C9.82135438,62.0694087 9.47237225,61.7030848 9.37266307,61.5565553 L0.822600748,50.7866324 C0.299127545,50.1272494 0,49.6388175 0,48.7840617 C0,47.8071979 0.473618612,46.9768638 1.32114666,46.4395887 C2.01911093,46 2.59243872,46 3.39011217,46 L8.6746988,46 C9.62193602,46 10.4196095,46.1953728 11.142501,46.8059126 C11.7906107,47.3676093 12.3140839,48.2712082 12.3140839,49.125964 C12.3140839,49.907455 11.9152472,50.5424165 11.0178646,50.5424165 C10.2700457,50.5424165 9.82135438,50.0784062 9.82135438,49.3946015 C9.82135438,48.5642674 9.39759036,48.4421594 8.6248442,48.4421594 L3.34025758,48.4421594 C3.06605733,48.4421594 2.49272954,48.3688946 2.49272954,48.7840617 C2.49272954,49.003856 2.76692979,49.2969152 2.86663897,49.4434447 Z M22.8583299,48.4421594 L20.4403822,48.4421594 L20.4403822,49.3213368 C20.4403822,50.1028278 20.0914001,50.5424165 19.1940174,50.5424165 C18.2966348,50.5424165 17.9476527,50.1028278 17.9476527,49.3213368 L17.9476527,46 L30.2617366,46 L30.2617366,49.3213368 C30.2617366,50.1028278 29.9127545,50.5424165 29.0153718,50.5424165 C28.1179892,50.5424165 27.7690071,50.1028278 27.7690071,49.3213368 L27.7690071,48.4421594 L25.3510594,48.4421594 L25.3510594,63.7789203 C25.3510594,64.5604113 25.0020773,65 24.1046946,65 C23.207312,65 22.8583299,64.5604113 22.8583299,63.7789203 L22.8583299,48.4421594 Z M44.1711674,65 L39.9335272,65 C38.6871624,65 37.7149979,64.7069409 36.8425426,63.7544987 C36.0199418,62.8508997 35.8953054,61.9717224 35.8953054,60.848329 L35.8953054,47.2210797 C35.8953054,46.4395887 36.2442875,46 37.1416701,46 C38.0390528,46 38.3880349,46.4395887 38.3880349,47.2210797 L38.3880349,60.848329 C38.3880349,62.2159383 38.8117989,62.5578406 39.9335272,62.5578406 L44.1711674,62.5578406 C45.2928957,62.5578406 45.7166597,62.2159383 45.7166597,60.848329 L45.7166597,47.2210797 C45.7166597,46.4395887 46.0656419,46 46.9630245,46 C47.8604071,46 48.2093893,46.4395887 48.2093893,47.2210797 L48.2093893,60.848329 C48.2093893,61.9717224 48.0847528,62.8508997 47.2621521,63.7544987 C46.3896967,64.7069409 45.4175322,65 44.1711674,65 Z M56.285833,62.5578406 L56.285833,48.4421594 L55.3635231,48.4421594 C54.5409223,48.4421594 53.842958,48.1491003 53.842958,47.2210797 C53.842958,46.3419023 54.515995,46 55.2887412,46 L59.4515995,46 C61.3959285,46 62.3680931,46.781491 63.2156211,48.4421594 L65.4092231,52.7403599 C65.907769,53.7416452 66.157042,54.4498715 66.157042,55.5732648 C66.157042,56.5501285 65.8828417,57.3804627 65.4341504,58.2596401 L63.1657665,62.7043702 C62.2933112,64.4383033 61.1715829,65 59.2272538,65 L55.0893228,65 C54.4412131,65 53.842958,64.6580977 53.842958,63.7789203 C53.842958,62.8997429 54.4412131,62.5578406 55.0893228,62.5578406 L56.285833,62.5578406 Z M58.7785625,48.4421111 L58.7785625,62.5578406 L59.2521811,62.5578406 C60.2991275,62.5578406 60.5484005,62.4357326 60.9970918,61.5321337 L63.1906938,57.18509 C63.4648941,56.6233933 63.6643124,56.2082262 63.6643124,55.5976864 C63.6643124,54.7673522 63.3901122,54.3033419 63.04113,53.5951157 L60.9721645,49.4678663 C60.4486913,48.4177378 60.2243457,48.4421594 59.0776901,48.4421594 L58.7785625,48.4421111 Z M79.1940174,48.4421594 L79.1940174,62.5578406 L82.8583299,62.5578406 C83.5064396,62.5578406 84.1046946,62.8997429 84.1046946,63.7789203 C84.1046946,64.6580977 83.5064396,65 82.8583299,65 L73.0369755,65 C72.3888658,65 71.7906107,64.6580977 71.7906107,63.7789203 C71.7906107,62.8997429 72.3888658,62.5578406 73.0369755,62.5578406 L76.7012879,62.5578406 L76.7012879,48.4421594 L73.0369755,48.4421594 C72.3888658,48.4421594 71.7906107,48.1002571 71.7906107,47.2210797 C71.7906107,46.3419023 72.3888658,46 73.0369755,46 L82.8583299,46 C83.5064396,46 84.1046946,46.3419023 84.1046946,47.2210797 C84.1046946,48.1002571 83.5064396,48.4421594 82.8583299,48.4421594 L79.1940174,48.4421594 Z M98.9115081,48.0025707 L101.404238,52.8624679 C101.877856,53.81491 102.052347,54.5231362 102.052347,55.5732648 C102.052347,56.7455013 101.728292,57.4781491 101.229747,58.4794344 L98.9364354,62.9730077 C98.3381803,64.1452442 97.3410885,65 95.8953054,65 C94.4495222,65 93.4524304,64.1452442 92.8541753,62.9730077 L90.5608641,58.4794344 C90.0623182,57.4781491 89.7382634,56.7455013 89.7382634,55.5732648 C89.7382634,54.5231362 89.9127545,53.81491 90.3863731,52.8624679 L92.8791026,48.0025707 C93.4773577,46.8547558 94.4993768,46 95.8953054,46 C97.2912339,46 98.313253,46.8547558 98.9115081,48.0025707 Z M98.98629,53.5951157 L96.7428334,49.1748072 C96.543415,48.7840617 96.4187786,48.4421594 95.8953054,48.4421594 C95.3718322,48.4421594 95.2471957,48.7840617 95.0477773,49.1748072 L92.8043207,53.5951157 C92.4304113,54.3033419 92.2309929,54.7673522 92.2309929,55.5732648 C92.2309929,56.2082262 92.3805567,56.6478149 92.654757,57.18509 L95.0477773,61.8251928 C95.2222684,62.1670951 95.3967595,62.5578406 95.8953054,62.5578406 C96.3938513,62.5578406 96.5683423,62.1670951 96.7428334,61.8251928 L99.1358538,57.18509 C99.410054,56.6478149 99.5596178,56.2082262 99.5596178,55.5732648 C99.5596178,54.7673522 99.3601994,54.3033419 98.98629,53.5951157 Z M110.552555,49.4434447 L119.127545,60.2133676 C119.626091,60.848329 120,61.4100257 120,62.2403599 C120,64.0719794 118.579144,65 116.859161,65 L111.375156,65 C110.427919,65 109.605318,64.8290488 108.857499,64.218509 C108.184462,63.6812339 107.685916,62.8020566 107.685916,61.9473008 C107.685916,61.1658098 108.134607,60.4820051 109.007063,60.4820051 C109.729954,60.4820051 110.178646,61.0681234 110.178646,61.7275064 C110.178646,62.4601542 110.577482,62.5578406 111.275447,62.5578406 L116.68467,62.5578406 C116.884088,62.5578406 117.50727,62.6311054 117.50727,62.2647815 C117.50727,62.0694087 117.158288,61.7030848 117.058579,61.5565553 L108.508517,50.7866324 C107.985044,50.1272494 107.685916,49.6388175 107.685916,48.7840617 C107.685916,47.8071979 108.159535,46.9768638 109.007063,46.4395887 C109.705027,46 110.278355,46 111.076028,46 L116.360615,46 C117.307852,46 118.105526,46.1953728 118.828417,46.8059126 C119.476527,47.3676093 120,48.2712082 120,49.125964 C120,49.907455 119.601163,50.5424165 118.703781,50.5424165 C117.955962,50.5424165 117.50727,50.0784062 117.50727,49.3946015 C117.50727,48.5642674 117.083506,48.4421594 116.31076,48.4421594 L111.026174,48.4421594 C110.751973,48.4421594 110.178646,48.3688946 110.178646,48.7840617 C110.178646,49.003856 110.452846,49.2969152 110.552555,49.4434447 Z" id="STUDIOS"></path>
            </g>
        </g>
    </g>
</svg>