<?xml version="1.0" encoding="UTF-8"?>
<svg width="80px" height="80px" viewBox="0 0 80 80" version="1.1" xmlns="http://www.w3.org/2000/svg" xmlns:xlink="http://www.w3.org/1999/xlink">
    <!-- Generator: Sketch 51.3 (57544) - http://www.bohemiancoding.com/sketch -->
    <title>menu_close_icon</title>
    <desc>Created with Sketch.</desc>
    <defs></defs>
    <g id="menu_close_icon" stroke="none" stroke-width="1" fill="none" fill-rule="evenodd">
        <g transform="translate(15.000000, 15.000000)" fill="#FFFFFF" id="cross" stroke="#FFFFFF">
            <g>
                <path d="M29.4196003,24.9998047 L49.0847513,5.33402605 C50.3050829,4.11370401 50.3050829,2.1347823 49.0847513,0.915241525 C47.8644198,-0.305080508 45.8862638,-0.305080508 44.6659323,0.915241525 L25,20.5802389 L5.33484898,0.915241525 C4.11451741,-0.305080508 2.13558024,-0.305080508 0.915248676,0.915241525 C-0.305082892,2.13556356 -0.305082892,4.11448527 0.915248676,5.33402605 L20.581181,24.9998047 L0.915248676,44.6655833 C-0.305082892,45.8859054 -0.305082892,47.8648271 0.915248676,49.0843678 C1.52541446,49.6945289 2.32542696,50 3.1246582,50 C3.92388944,50 4.7246832,49.6945289 5.33484898,49.0843678 L25,29.4193705 L44.6659323,49.0843678 C45.2760981,49.6945289 46.0761106,50 46.8753418,50 C47.674573,50 48.4753668,49.6945289 49.0847513,49.0843678 C50.3050829,47.8640458 50.3050829,45.8851241 49.0847513,44.6655833 L29.4196003,24.9998047 Z" id="Shape" stroke-width="2" fill-rule="nonzero"></path>
            </g>
        </g>
    </g>
</svg>