<?xml version="1.0" encoding="UTF-8"?>
<svg width="80px" height="80px" viewBox="0 0 80 80" version="1.1" xmlns="http://www.w3.org/2000/svg" xmlns:xlink="http://www.w3.org/1999/xlink">
    <!-- Generator: Sketch 51.3 (57544) - http://www.bohemiancoding.com/sketch -->
    <title>instagram_icon</title>
    <desc>Created with Sketch.</desc>
    <defs></defs>
    <g id="instagram_icon" stroke="none" stroke-width="1" fill="none" fill-rule="evenodd">
        <g transform="translate(13.000000, 13.000000)" fill="#979797" id="Group-6">
            <g>
                <path d="M49.4659682,38.6144705 C49.4659682,44.6087048 44.6087048,49.4659682 38.6144705,49.4659682 L16.3855295,49.4659682 C10.3912952,49.4659682 5.53403178,44.6087048 5.53403178,38.6144705 L5.53403178,16.3855295 C5.53403178,10.3912952 10.3912952,5.53403178 16.3855295,5.53403178 L38.6144705,5.53403178 C44.6087048,5.53403178 49.4659682,10.3912952 49.4659682,16.3855295 L49.4659682,38.6144705 Z M38.6144705,0 L16.3855295,0 C7.35163831,0 0,7.35163831 0,16.3855295 L0,38.6144705 C0,47.6483617 7.35163831,55 16.3855295,55 L38.6144705,55 C47.6483617,55 55,47.6483617 55,38.6144705 L55,16.3855295 C55,7.35163831 47.6483617,0 38.6144705,0 Z" id="Fill-13-Copy"></path>
                <path d="M27.5,35.9010126 C22.86059,35.9010126 19.0959761,32.1406484 19.0959761,27.501869 C19.0959761,22.8593516 22.86059,19.0989874 27.5,19.0989874 C32.13941,19.0989874 35.9002855,22.8593516 35.9002855,27.501869 C35.9002855,32.1406484 32.13941,35.9010126 27.5,35.9010126 M27.5,13.75 C19.9184339,13.75 13.75,19.9213334 13.75,27.501869 C13.75,35.0824045 19.9184339,41.25 27.5,41.25 C35.0815661,41.25 41.25,35.0824045 41.25,27.501869 C41.25,19.9213334 35.0815661,13.75 27.5,13.75" id="Fill-15-Copy"></path>
            </g>
        </g>
    </g>
</svg>